{
  "Calendar_1.opus": {"l10nID": "Calendar_1"},
  "Calendar_2.opus": {"l10nID": "Calendar_2"},
  "Calendar_3.opus": {"l10nID": "Calendar_3"},
  "Message_1.opus": {"l10nID": "Message_1"},
  "Message_2.opus": {"l10nID": "Message_2"},
  "Message_3.opus": {"l10nID": "Message_3"},
  "Message_4.opus": {"l10nID": "Message_4"},
  "Message_5.opus": {"l10nID": "Message_5"}
}